{
  "developmentRegion" : "en",
  "targetLocale" : "ca-ES",
  "toolInfo" : {
    "toolBuildNumber" : "14A400",
    "toolID" : "com.apple.dt.xcode",
    "toolName" : "Xcode",
    "toolVersion" : "14.0.1"
  },
  "version" : "1.0",
  "workspace" : "comuniapp.xcworkspace"
}